
{
  "article":
    {
      "definition": "is a portmanteau of two words “federation” and “universe”",
      "preamble": "It is a common name for federated social networks running on free open software on a myriad of servers across the world. Historically, this term has included only microblogging platforms supporting a set of protocols called OStatus. This didn't do justice to a large number of projects that federate, share same values and are reasonably popular. With the appearance and wide adoption of a new standard protocol called ActivityPub it makes no sense to further divide the federated world into “OStatus” and “non-OStatus” projects. This guide unites all interoperable federated networks under one term “Fediverse”.",
      "info": "Fediverse social networks have many differences from mainstream platforms (Facebook, Twitter, Instagram, Pinterest, etc). For one, all of the federated networks are developed by the community of people all around the globe, independent from any corporation or official institution. This means that you can take part in the development and growth of the Fediverse. All skills are valuable: spreading the word, inviting friends are most welcome activities. Another difference of these social networks from corporate silos is the principle of federation. Mainstream networks concentrate millions of users on their servers. That gives them dangerous powers of controlling information and hoarding users' private data, using it for commercial profit (and who knows what other causes). Fediverse networks are designed to be run by anybody: you are free to choose and register on any server you like, you can choose the person who will be in charge of your data - the administrator of your server. If you have some technical knowledge, you can administrate your own server for your friends and family, at your will connecting with thousands of other independent servers across the web. In a sense, Fediverse is an autonomous universe where power and data are decentralized and scattered across multiple lands, while mainstream corporate websites each made themselves a king (or a tyrant?) of their own huge land, surrounded with high fences, and reserve all the decision-making, data control and censorship to themselves. Fediverse has much more to it than it looks at first sight. You will meet many good friends here. But don't trust our word - check for yourself.",
      "history":
        [
          {
            "title": "Privacy and Tracking on the Fediverse",
            "url": "https://blog.soykaf.com/post/privacy-and-tracking-on-the-fediverse"
          },
          {
            "title": "A People's History of the Fediverse",
            "url": "https://wiki.freedombone.net/view/welcome-visitors/view/a-peoples-history-of-the-fediverse/view/introduction"
          },
          {
            "title": "A brief history of the GNU Social Fediverse and the Federation",
            "url": "https://www.coactivate.org/projects/disintermedia/blog/2017/04/01/a-brief-history-of-the-gnu-social-fediverse-and-the-federation"
          },
          {
            "title": "Distributed Social Networks and Public History",
            "url": "http://publichistory.media/2016/02/21/distributed-social-networks-and-public-history"},
          {
            "title": "Mastodon Timeline",
            "url": "http://ansuz.sooke.bc.ca/entry/335"
          },
          {
            "title": "A quick guide to the Free Network",
            "url": "https://medium.com/we-distribute/a-quick-guide-to-the-free-network-c069309f334"
          }
        ],
      "projects":
        [
          {
            "title": "Fediverse visualization",
            "url": "https://kumu.io/wakest/fediverse"
          },
          {
            "title": "Fediverse hashtags visualization",
            "url": "https://lucahammer.at/vis/fediverse/2018-08-30-mastoverse_hashtags"
          }
        ],
      "servers":
        ["fediverse.network", "podupti.me", "the-federation.info", "distsn.org", "fediverse.space"],
      "reading":
        [
          {
            "title": "Wikipedia article",
            "url": "https://en.wikipedia.org/wiki/Fediverse"
          },
          {
            "title": "The blockchain is a threat to the distributed future of the Internet",
            "url": "https://blog.p2pfoundation.net/blockchain-threat-distributed-future-internet/2016/05/23"
          }
        ]
    }
}
