
{
  "data":
    {
      "title": "mastodon",
      "category": "social network",
      "type": "microblogging",
      "logoClr": "3088d4",
      "created": "2016",
      "official": "https://joinmastodon.org",
      "license": "AGPL-3.0",
      "repo": "https://github.com/tootsuite/mastodon",
      "language": "Ruby",
      "protocols":
        [
          {"title": "OStatus", "url": "https://github.com/tootsuite/ostatus2"},
          {"title": "ActivityPub", "url": "https://activitypub.rocks"}
        ],
      "wiki": "",
      "servers":
        [
          {"num": "1", "url": "https://mnm.social/instances"},
          {"num": "2", "url": "https://the-federation.info/mastodon"},
          {"num": "3", "url": "https://github.com/distributopia/masto-world-overview"},
          {"num": "4", "url": "https://fediverse.network/mastodon"}
        ],
      "serverWizard": "https://instances.social",
      "mobile": "https://github.com/tootsuite/documentation/blob/master/Using-Mastodon/Apps.md#mobile-clients",
      "forUsers":
        [
          {"id": "0", "url": "https://bridge.joinmastodon.org"},
          {"id": "1", "url": "https://vinayaka.distsn.org"},
          {"id": "2", "url": "https://elenq.gitlab.io/artodon"},
          {"id": "3", "url": "https://communitywiki.org/trunk"}
        ],
      "tutorials":
        [
          {"id": "0", "url": "https://medium.com/@GinnyMcQueen/toot-how-to-intro-to-mastodon-e5655bfa87d2"},
          {"id": "1", "url": "https://alexschroeder.ch/wiki/2017-11-16_How_to_Mastodon"},
          {"id": "2", "url": "https://gist.github.com/joyeusenoelle/74f6e6c0f349651349a0df9ae4582969"}
        ],
      "devTutorial": "https://github.com/tootsuite/documentation",
      "metrics":
        [
          {"id": "0", "url": "https://mnm.social"},
          {"id": "1", "url": "http://sp3r4z.fr/mastodon"},
          {"id": "2", "url": "https://metadon.jemu.name"}
        ],
      "awesome": "https://github.com/tleb/awesome-mastodon",
      "backup": "https://github.com/kensanata/mastodon-backup",
      "services":
        [
          {"id": "0", "url": "https://masto.host"}
        ],
      "forks":
        [
          {"id": "0", "url": "https://github.com/glitch-soc/mastodon"},
          {"id": "1", "url": "https://github.com/beatrix-bitrot/ephemeral.glitch.social"}
        ],
      "utilities":
        [
          {"id": "0", "url": "https://www.mastofeed.com"},
          {"id": "1", "url": "https://crossposter.masto.donte.com.br"},
          {"id": "2", "url": "http://www.unmung.com/mastoview"},

          {"id": "4", "url": "https://fed.brid.gy"},
          {"id": "5", "url": "https://gitlab.com/chaica/feed2toot"}
        ],
      "mascot": [{"item": "mastodon", "imgNum": "1"}, {"item": "trumpet", "imgNum": "2"}],
      "dwellers": "mastonauts",
      "communities": [{"title": "List of servers by theme", "url": "https://github.com/distributopia/masto-world-overview"}],
      "descr": "Mastodon network grew quickly and its development is still speedy. You'll find everything you want of a microblogging platform, and much more. There are numerous Mastodon servers (called \"instances\") created specifically for certain communities and dedicated to various interests, spheres of knowledge, regions and activities.",
      "connections": ["Friendica", "GNU Social", "Hubzilla", "Misskey", "Osada", "PeerTube", "Pleroma", "postActiv"],
      "features":
        [
          "contact lists",
          "making contact list private",
          "custom emojis",
          "pinned posts",
          "spoiler warnings",
          "redrafting posts",
          "image preview with focal points",
          "account verification with links"
        ],
      "information":
        [
          "Direct messages (\"private messages\") will be delivered with limited visibility (non public) only between Mastodon users. Friends from other networks may get such \"direct messages\" as public (visible to all) because some networks (GNU Social) don't support DMs, and other projects don't know how to handle them and by default make them public (Friendica, Hubzilla, Osada). Keep that in mind when sharing something private via a DM."
        ],
      "donate": "https://patreon.com/mastodon",
      "tracker": "https://github.com/tootsuite/mastodon/issues",
      "bounty": "",
      "translating": "https://weblate.joinmastodon.org",
      "reading":
        [
          {
            "title": "One Mammoth of a Job: An Interview with Eugen Rochko of Mastodon",
            "url": "https://medium.com/we-distribute/one-mammoth-of-a-job-an-interview-with-eugen-rochko-of-mastodon-23b159d6796a"
          },
          {
            "title": "Two reasons why organizations should switch to self-hosting social media",
            "url": "https://blog.joinmastodon.org/2017/03/two-reasons-why-organizations-should-switch-to-self-hosting-social-media"
          },
          {
            "title": "Mastodon Timeline",
            "url": "http://ansuz.sooke.bc.ca/entry/335"
          },
          {
            "title": "Wikipedia article",
            "url": "https://en.wikipedia.org/wiki/Mastodon_(software)"
          }
        ],
      "notable":
        [
          {
            "name": "Framasoft",
            "url": "https://framapiaf.org/@Framasoft",
            "avatar": "/img/avatars/framasoft.png"
          },
          {
            "name": "YunoHost",
            "url": "https://mastodon.social/@yunohost",
            "avatar": "/img/avatars/yunohost.png"
          },
          {
            "name": "FreedomBox",
            "url": "https://mastodon.social/@freedomboxfndn",
            "avatar": "/img/avatars/freedombox.png"
          },
          {
            "name": "Ind.ie",
            "url": "https://mastodon.ind.ie/@indie",
            "avatar": "/img/avatars/indie.png"
          },
          {
            "name": "Exodus",
            "url": "https://framapiaf.org/@exodus",
            "avatar": "/img/avatars/exodus.png"
          },
          {
            "name": "CCC",
            "url": "https://social.bau-ha.us/@CCC",
            "avatar": "/img/avatars/ccc.png"
          },
          {
            "name": "FSFE",
            "url": "https://mastodon.social/@fsfe",
            "avatar": "/img/avatars/fsfe.png"
          },
          {
            "name": "the Vikings",
            "url": "https://social.vikings.net/@vikings",
            "avatar": "/img/avatars/vikings.png"
          },
          {
            "name": "La Quadrature du Net",
            "url": "https://mamot.fr/@LaQuadrature",
            "avatar": "/img/avatars/laquadrature.png"
          },
          {
            "name": "CHATONS",
            "url": "https://framapiaf.org/@ChatonsOrg",
            "avatar": "/img/avatars/chatons.png"
          },
          {
            "name": "F-Droid",
            "url": "https://mastodon.technology/@fdroidorg",
            "avatar": "/img/avatars/fdroid.png"
          },
          {
            "name": "David Revoy",
            "url": "https://framapiaf.org/@davidrevoy",
            "avatar": "/img/avatars/drevoy.png"
          },
          {
            "name": "Morevna Project",
            "url": "https://mastodon.social/@morevnaproject",
            "avatar": "/img/avatars/morevnaproject.png"
          },
          {
            "name": "John Scalzi",
            "url": "https://mastodon.social/@scalzi",
            "avatar": "/img/avatars/scalzi.png"
          },
          {
            "name": "Digitalcourage",
            "url": "https://chaos.social/@Digitalcourage",
            "avatar": "/img/avatars/digitalcourage.png"
          },
          {
            "name": "TorProject",
            "url": "https://mastodon.social/@torproject",
            "avatar": "/img/avatars/torproject.png"
          },
          {
            "name": "Tutanota",
            "url": "https://mastodon.social/@Tutanota",
            "avatar": "/img/avatars/tutanota.png"
          },
          {
            "name": "Protonmail",
            "url": "https://mastodon.social/@protonmail",
            "avatar": "/img/avatars/protonmail.png"
          },
          {
            "name": "NextCloud",
            "url": "https://mastodon.xyz/@nextcloud",
            "avatar": "/img/avatars/nextcloud.png"
          },
          {
            "name": "Privacy International",
            "url": "https://mastodon.xyz/@privacyint",
            "avatar": "/img/avatars/privacyinternational.png"
          },
          {
            "name": "Yale Privacy Lab",
            "url": "https://mastodon.social/@privacylab",
            "avatar": "/img/avatars/yale-privacylab.png"
          },
          {
            "name": "Krita",
            "url": "https://mastodon.art/@krita",
            "avatar": "/img/avatars/krita.png"
          },
          {
            "name": "Inkscape",
            "url": "https://mastodon.art/@inkscape",
            "avatar": "/img/avatars/inkscape.png"
          },
          {
            "name": "GIMP",
            "url": "https://mastodon.at/@GIMP",
            "avatar": "/img/avatars/gimp.png"
          },
          {
            "name": "FreeCAD",
            "url": "https://fosstodon.org/@FreeCAD",
            "avatar": "/img/avatars/freecad.png"
          },
          {
            "name": "Doorbraak",
            "url": "https://todon.nl/@doorbraak",
            "avatar": "/img/avatars/doorbraak.png"
          },
          {
            "name": "Association R.A.P.",
            "url": "https://framapiaf.org/@RAPasso",
            "avatar": "/img/avatars/rap.png"
          },
          {
            "name": "OCCRP",
            "url": "https://mastodon.cloud/@OCCRP",
            "avatar": "/img/avatars/occrp.png"
          },
          {
            "name": "Snowdrift",
            "url": "https://social.coop/@snowdrift",
            "avatar": "/img/avatars/snowdrift.png"
          },
          {
            "name": "Liberapay",
            "url": "https://mastodon.xyz/@Liberapay",
            "avatar": "/img/avatars/liberapay.png"
          },
          {
            "name": "UBPorts",
            "url": "https://mastodon.rocks/@UBports",
            "avatar": "/img/avatars/ubports.png"
          },
          {
            "name": "Dallas Hackers",
            "url": "https://infosec.exchange/@dallas_hackers",
            "avatar": "/img/avatars/dallas_h.png"
          },
          {
            "name": "GNOME",
            "url": "https://floss.social/@gnome",
            "avatar": "/img/avatars/gnome.png"
          },
          {
            "name": "KDE",
            "url": "https://mastodon.technology/@kde",
            "avatar": "/img/avatars/kde.png"
          },
          {
            "name": "Jami",
            "url": "https://mstdn.io/@Jami",
            "avatar": "/img/avatars/jami.png"
          },
          {
            "name": "Matrix",
            "url": "https://mastodon.matrix.org/@matrix",
            "avatar": "/img/avatars/matrix.png"
          },
          {
            "name": "Debian",
            "url": "https://fosstodon.org/@debian",
            "avatar": "/img/avatars/debian.png"
          },
          {
            "name": "MXLinux",
            "url": "https://mastodon.social/@mxlinux",
            "avatar": "/img/avatars/mxlinux.png"
          },
          {
            "name": "Gentoo",
            "url": "https://fosstodon.org/@gentoo",
            "avatar": "/img/avatars/gentoo.png"
          },
          {
            "name": "OpenSUSE",
            "url": "https://fosstodon.org/@opensuse",
            "avatar": "/img/avatars/opensuse.png"
          },
          {
            "name": "Purism",
            "url": "https://mastodon.social/@Purism",
            "avatar": "/img/avatars/purism.png"
          },
          {
            "name": "NOYB.eu",
            "url": "https://mastodon.at/@noybeu",
            "avatar": "/img/avatars/noyb.png"
          }
        ]
    }
}
